%YAML 1.1
%TAG !u! tag:unity3d.com,2011:
--- !u!1 &6938120133958657194
GameObject:
  m_ObjectHideFlags: 0
  m_CorrespondingSourceObject: {fileID: 0}
  m_PrefabInstance: {fileID: 0}
  m_PrefabAsset: {fileID: 0}
  serializedVersion: 6
  m_Component:
  - component: {fileID: 3964521284262842954}
  m_Layer: 0
  m_Name: Vine_1
  m_TagString: Untagged
  m_Icon: {fileID: 0}
  m_NavMeshLayer: 0
  m_StaticEditorFlags: 0
  m_IsActive: 1
--- !u!4 &3964521284262842954
Transform:
  m_ObjectHideFlags: 0
  m_CorrespondingSourceObject: {fileID: 0}
  m_PrefabInstance: {fileID: 0}
  m_PrefabAsset: {fileID: 0}
  m_GameObject: {fileID: 6938120133958657194}
  m_LocalRotation: {x: -0, y: -0, z: -0, w: 1}
  m_LocalPosition: {x: -0.16442132, y: 0.842, z: 9.004928}
  m_LocalScale: {x: 50, y: 50, z: 50}
  m_Children:
  - {fileID: 3808645504016588273}
  m_Father: {fileID: 0}
  m_RootOrder: 0
  m_LocalEulerAnglesHint: {x: 0, y: 0, z: 0}
--- !u!1001 &3697947417211140634
PrefabInstance:
  m_ObjectHideFlags: 0
  serializedVersion: 2
  m_Modification:
    m_TransformParent: {fileID: 3964521284262842954}
    m_Modifications:
    - target: {fileID: -8679921383154817045, guid: 6a1a6f492060e804b9e031a0402e7d3e, type: 3}
      propertyPath: m_RootOrder
      value: 0
      objectReference: {fileID: 0}
    - target: {fileID: -8679921383154817045, guid: 6a1a6f492060e804b9e031a0402e7d3e, type: 3}
      propertyPath: m_LocalScale.x
      value: 1
      objectReference: {fileID: 0}
    - target: {fileID: -8679921383154817045, guid: 6a1a6f492060e804b9e031a0402e7d3e, type: 3}
      propertyPath: m_LocalScale.y
      value: 1
      objectReference: {fileID: 0}
    - target: {fileID: -8679921383154817045, guid: 6a1a6f492060e804b9e031a0402e7d3e, type: 3}
      propertyPath: m_LocalScale.z
      value: 1
      objectReference: {fileID: 0}
    - target: {fileID: -8679921383154817045, guid: 6a1a6f492060e804b9e031a0402e7d3e, type: 3}
      propertyPath: m_LocalPosition.x
      value: 0
      objectReference: {fileID: 0}
    - target: {fileID: -8679921383154817045, guid: 6a1a6f492060e804b9e031a0402e7d3e, type: 3}
      propertyPath: m_LocalPosition.y
      value: 0
      objectReference: {fileID: 0}
    - target: {fileID: -8679921383154817045, guid: 6a1a6f492060e804b9e031a0402e7d3e, type: 3}
      propertyPath: m_LocalPosition.z
      value: 0
      objectReference: {fileID: 0}
    - target: {fileID: -8679921383154817045, guid: 6a1a6f492060e804b9e031a0402e7d3e, type: 3}
      propertyPath: m_LocalRotation.w
      value: 1
      objectReference: {fileID: 0}
    - target: {fileID: -8679921383154817045, guid: 6a1a6f492060e804b9e031a0402e7d3e, type: 3}
      propertyPath: m_LocalRotation.x
      value: -0
      objectReference: {fileID: 0}
    - target: {fileID: -8679921383154817045, guid: 6a1a6f492060e804b9e031a0402e7d3e, type: 3}
      propertyPath: m_LocalRotation.y
      value: -0
      objectReference: {fileID: 0}
    - target: {fileID: -8679921383154817045, guid: 6a1a6f492060e804b9e031a0402e7d3e, type: 3}
      propertyPath: m_LocalRotation.z
      value: -0
      objectReference: {fileID: 0}
    - target: {fileID: -8679921383154817045, guid: 6a1a6f492060e804b9e031a0402e7d3e, type: 3}
      propertyPath: m_LocalEulerAnglesHint.x
      value: 0
      objectReference: {fileID: 0}
    - target: {fileID: -8679921383154817045, guid: 6a1a6f492060e804b9e031a0402e7d3e, type: 3}
      propertyPath: m_LocalEulerAnglesHint.y
      value: 0
      objectReference: {fileID: 0}
    - target: {fileID: -8679921383154817045, guid: 6a1a6f492060e804b9e031a0402e7d3e, type: 3}
      propertyPath: m_LocalEulerAnglesHint.z
      value: 0
      objectReference: {fileID: 0}
    - target: {fileID: 919132149155446097, guid: 6a1a6f492060e804b9e031a0402e7d3e, type: 3}
      propertyPath: m_Name
      value: Vine1
      objectReference: {fileID: 0}
    - target: {fileID: 919132149155446097, guid: 6a1a6f492060e804b9e031a0402e7d3e, type: 3}
      propertyPath: m_StaticEditorFlags
      value: 1
      objectReference: {fileID: 0}
    m_RemovedComponents: []
  m_SourcePrefab: {fileID: 100100000, guid: 6a1a6f492060e804b9e031a0402e7d3e, type: 3}
--- !u!4 &3808645504016588273 stripped
Transform:
  m_CorrespondingSourceObject: {fileID: -8679921383154817045, guid: 6a1a6f492060e804b9e031a0402e7d3e, type: 3}
  m_PrefabInstance: {fileID: 3697947417211140634}
  m_PrefabAsset: {fileID: 0}
