%YAML 1.1
%TAG !u! tag:unity3d.com,2011:
--- !u!1 &5129462327913249958
GameObject:
  m_ObjectHideFlags: 0
  m_CorrespondingSourceObject: {fileID: 0}
  m_PrefabInstance: {fileID: 0}
  m_PrefabAsset: {fileID: 0}
  serializedVersion: 6
  m_Component:
  - component: {fileID: 8890903721228643096}
  m_Layer: 0
  m_Name: Rock Steps
  m_TagString: Untagged
  m_Icon: {fileID: 0}
  m_NavMeshLayer: 0
  m_StaticEditorFlags: 0
  m_IsActive: 1
--- !u!4 &8890903721228643096
Transform:
  m_ObjectHideFlags: 0
  m_CorrespondingSourceObject: {fileID: 0}
  m_PrefabInstance: {fileID: 0}
  m_PrefabAsset: {fileID: 0}
  m_GameObject: {fileID: 5129462327913249958}
  m_LocalRotation: {x: -0, y: -0, z: -0, w: 1}
  m_LocalPosition: {x: 9.728002, y: -0.023652583, z: 10.265722}
  m_LocalScale: {x: 1, y: 1, z: 1}
  m_Children:
  - {fileID: 5958949356472775615}
  m_Father: {fileID: 0}
  m_RootOrder: 0
  m_LocalEulerAnglesHint: {x: 0, y: 0, z: 0}
--- !u!1001 &6140879795273552980
PrefabInstance:
  m_ObjectHideFlags: 0
  serializedVersion: 2
  m_Modification:
    m_TransformParent: {fileID: 8890903721228643096}
    m_Modifications:
    - target: {fileID: -8679921383154817045, guid: 55e56415b12091a46b883d4ebba175aa, type: 3}
      propertyPath: m_LocalPosition.x
      value: 0
      objectReference: {fileID: 0}
    - target: {fileID: -8679921383154817045, guid: 55e56415b12091a46b883d4ebba175aa, type: 3}
      propertyPath: m_LocalPosition.y
      value: 0
      objectReference: {fileID: 0}
    - target: {fileID: -8679921383154817045, guid: 55e56415b12091a46b883d4ebba175aa, type: 3}
      propertyPath: m_LocalPosition.z
      value: 0
      objectReference: {fileID: 0}
    - target: {fileID: -8679921383154817045, guid: 55e56415b12091a46b883d4ebba175aa, type: 3}
      propertyPath: m_LocalRotation.x
      value: -0
      objectReference: {fileID: 0}
    - target: {fileID: -8679921383154817045, guid: 55e56415b12091a46b883d4ebba175aa, type: 3}
      propertyPath: m_LocalRotation.y
      value: -0
      objectReference: {fileID: 0}
    - target: {fileID: -8679921383154817045, guid: 55e56415b12091a46b883d4ebba175aa, type: 3}
      propertyPath: m_LocalRotation.z
      value: -0
      objectReference: {fileID: 0}
    - target: {fileID: -8679921383154817045, guid: 55e56415b12091a46b883d4ebba175aa, type: 3}
      propertyPath: m_LocalRotation.w
      value: 1
      objectReference: {fileID: 0}
    - target: {fileID: -8679921383154817045, guid: 55e56415b12091a46b883d4ebba175aa, type: 3}
      propertyPath: m_RootOrder
      value: 0
      objectReference: {fileID: 0}
    - target: {fileID: -8679921383154817045, guid: 55e56415b12091a46b883d4ebba175aa, type: 3}
      propertyPath: m_LocalEulerAnglesHint.x
      value: 0
      objectReference: {fileID: 0}
    - target: {fileID: -8679921383154817045, guid: 55e56415b12091a46b883d4ebba175aa, type: 3}
      propertyPath: m_LocalEulerAnglesHint.y
      value: 0
      objectReference: {fileID: 0}
    - target: {fileID: -8679921383154817045, guid: 55e56415b12091a46b883d4ebba175aa, type: 3}
      propertyPath: m_LocalEulerAnglesHint.z
      value: 0
      objectReference: {fileID: 0}
    - target: {fileID: 919132149155446097, guid: 55e56415b12091a46b883d4ebba175aa, type: 3}
      propertyPath: m_Name
      value: Rock steps
      objectReference: {fileID: 0}
    m_RemovedComponents: []
  m_SourcePrefab: {fileID: 100100000, guid: 55e56415b12091a46b883d4ebba175aa, type: 3}
--- !u!4 &5958949356472775615 stripped
Transform:
  m_CorrespondingSourceObject: {fileID: -8679921383154817045, guid: 55e56415b12091a46b883d4ebba175aa, type: 3}
  m_PrefabInstance: {fileID: 6140879795273552980}
  m_PrefabAsset: {fileID: 0}
