%YAML 1.1
%TAG !u! tag:unity3d.com,2011:
--- !u!1 &2216504097456923252
GameObject:
  m_ObjectHideFlags: 0
  m_CorrespondingSourceObject: {fileID: 0}
  m_PrefabInstance: {fileID: 0}
  m_PrefabAsset: {fileID: 0}
  serializedVersion: 6
  m_Component:
  - component: {fileID: 7508405853414397397}
  m_Layer: 0
  m_Name: Rock sides
  m_TagString: Untagged
  m_Icon: {fileID: 0}
  m_NavMeshLayer: 0
  m_StaticEditorFlags: 0
  m_IsActive: 1
--- !u!4 &7508405853414397397
Transform:
  m_ObjectHideFlags: 0
  m_CorrespondingSourceObject: {fileID: 0}
  m_PrefabInstance: {fileID: 0}
  m_PrefabAsset: {fileID: 0}
  m_GameObject: {fileID: 2216504097456923252}
  m_LocalRotation: {x: -0, y: -0, z: -0, w: 1}
  m_LocalPosition: {x: 11.30803, y: -2.32752, z: 26.834599}
  m_LocalScale: {x: -1, y: 1, z: 1}
  m_Children:
  - {fileID: 8857903943105450907}
  m_Father: {fileID: 0}
  m_RootOrder: 0
  m_LocalEulerAnglesHint: {x: 0, y: 0, z: 0}
--- !u!1001 &9036228324546344048
PrefabInstance:
  m_ObjectHideFlags: 0
  serializedVersion: 2
  m_Modification:
    m_TransformParent: {fileID: 7508405853414397397}
    m_Modifications:
    - target: {fileID: -8679921383154817045, guid: 6327d8abe84b26a47bc1d2f5e88a2191, type: 3}
      propertyPath: m_LocalPosition.x
      value: 0
      objectReference: {fileID: 0}
    - target: {fileID: -8679921383154817045, guid: 6327d8abe84b26a47bc1d2f5e88a2191, type: 3}
      propertyPath: m_LocalPosition.y
      value: 0
      objectReference: {fileID: 0}
    - target: {fileID: -8679921383154817045, guid: 6327d8abe84b26a47bc1d2f5e88a2191, type: 3}
      propertyPath: m_LocalPosition.z
      value: 0
      objectReference: {fileID: 0}
    - target: {fileID: -8679921383154817045, guid: 6327d8abe84b26a47bc1d2f5e88a2191, type: 3}
      propertyPath: m_LocalRotation.x
      value: -0
      objectReference: {fileID: 0}
    - target: {fileID: -8679921383154817045, guid: 6327d8abe84b26a47bc1d2f5e88a2191, type: 3}
      propertyPath: m_LocalRotation.y
      value: 0
      objectReference: {fileID: 0}
    - target: {fileID: -8679921383154817045, guid: 6327d8abe84b26a47bc1d2f5e88a2191, type: 3}
      propertyPath: m_LocalRotation.z
      value: 0
      objectReference: {fileID: 0}
    - target: {fileID: -8679921383154817045, guid: 6327d8abe84b26a47bc1d2f5e88a2191, type: 3}
      propertyPath: m_LocalRotation.w
      value: 1
      objectReference: {fileID: 0}
    - target: {fileID: -8679921383154817045, guid: 6327d8abe84b26a47bc1d2f5e88a2191, type: 3}
      propertyPath: m_RootOrder
      value: 0
      objectReference: {fileID: 0}
    - target: {fileID: -8679921383154817045, guid: 6327d8abe84b26a47bc1d2f5e88a2191, type: 3}
      propertyPath: m_LocalEulerAnglesHint.x
      value: 0
      objectReference: {fileID: 0}
    - target: {fileID: -8679921383154817045, guid: 6327d8abe84b26a47bc1d2f5e88a2191, type: 3}
      propertyPath: m_LocalEulerAnglesHint.y
      value: 0
      objectReference: {fileID: 0}
    - target: {fileID: -8679921383154817045, guid: 6327d8abe84b26a47bc1d2f5e88a2191, type: 3}
      propertyPath: m_LocalEulerAnglesHint.z
      value: 0
      objectReference: {fileID: 0}
    - target: {fileID: -8679921383154817045, guid: 6327d8abe84b26a47bc1d2f5e88a2191, type: 3}
      propertyPath: m_LocalScale.x
      value: 1
      objectReference: {fileID: 0}
    - target: {fileID: 919132149155446097, guid: 6327d8abe84b26a47bc1d2f5e88a2191, type: 3}
      propertyPath: m_Name
      value: Rockwall sides
      objectReference: {fileID: 0}
    m_RemovedComponents: []
  m_SourcePrefab: {fileID: 100100000, guid: 6327d8abe84b26a47bc1d2f5e88a2191, type: 3}
--- !u!4 &8857903943105450907 stripped
Transform:
  m_CorrespondingSourceObject: {fileID: -8679921383154817045, guid: 6327d8abe84b26a47bc1d2f5e88a2191, type: 3}
  m_PrefabInstance: {fileID: 9036228324546344048}
  m_PrefabAsset: {fileID: 0}
