%YAML 1.1
%TAG !u! tag:unity3d.com,2011:
--- !u!65 &8543788588510923955
BoxCollider:
  m_ObjectHideFlags: 0
  m_CorrespondingSourceObject: {fileID: 0}
  m_PrefabInstance: {fileID: 0}
  m_PrefabAsset: {fileID: 0}
  m_GameObject: {fileID: 3799910865749486033}
  m_Material: {fileID: 0}
  m_IsTrigger: 0
  m_Enabled: 1
  serializedVersion: 2
  m_Size: {x: 2.3, y: 1, z: 1.09}
  m_Center: {x: 0, y: 0, z: 0}
--- !u!1 &5830024738647858123
GameObject:
  m_ObjectHideFlags: 0
  m_CorrespondingSourceObject: {fileID: 0}
  m_PrefabInstance: {fileID: 0}
  m_PrefabAsset: {fileID: 0}
  serializedVersion: 6
  m_Component:
  - component: {fileID: 465819036394812328}
  m_Layer: 0
  m_Name: Table couch
  m_TagString: Untagged
  m_Icon: {fileID: 0}
  m_NavMeshLayer: 0
  m_StaticEditorFlags: 0
  m_IsActive: 1
--- !u!4 &465819036394812328
Transform:
  m_ObjectHideFlags: 0
  m_CorrespondingSourceObject: {fileID: 0}
  m_PrefabInstance: {fileID: 0}
  m_PrefabAsset: {fileID: 0}
  m_GameObject: {fileID: 5830024738647858123}
  m_LocalRotation: {x: -0, y: -0, z: -0, w: 1}
  m_LocalPosition: {x: 0, y: 0, z: 0}
  m_LocalScale: {x: 1, y: 1, z: 1}
  m_Children:
  - {fileID: 4607233409349415787}
  m_Father: {fileID: 0}
  m_RootOrder: 0
  m_LocalEulerAnglesHint: {x: 0, y: 0, z: 0}
--- !u!1001 &4069731365554754688
PrefabInstance:
  m_ObjectHideFlags: 0
  serializedVersion: 2
  m_Modification:
    m_TransformParent: {fileID: 465819036394812328}
    m_Modifications:
    - target: {fileID: -8679921383154817045, guid: 696c0b31b1e9e1f4e9859acd8d22896b, type: 3}
      propertyPath: m_RootOrder
      value: 0
      objectReference: {fileID: 0}
    - target: {fileID: -8679921383154817045, guid: 696c0b31b1e9e1f4e9859acd8d22896b, type: 3}
      propertyPath: m_LocalPosition.x
      value: 0
      objectReference: {fileID: 0}
    - target: {fileID: -8679921383154817045, guid: 696c0b31b1e9e1f4e9859acd8d22896b, type: 3}
      propertyPath: m_LocalPosition.y
      value: 0
      objectReference: {fileID: 0}
    - target: {fileID: -8679921383154817045, guid: 696c0b31b1e9e1f4e9859acd8d22896b, type: 3}
      propertyPath: m_LocalPosition.z
      value: 0
      objectReference: {fileID: 0}
    - target: {fileID: -8679921383154817045, guid: 696c0b31b1e9e1f4e9859acd8d22896b, type: 3}
      propertyPath: m_LocalRotation.w
      value: 1
      objectReference: {fileID: 0}
    - target: {fileID: -8679921383154817045, guid: 696c0b31b1e9e1f4e9859acd8d22896b, type: 3}
      propertyPath: m_LocalRotation.x
      value: -0
      objectReference: {fileID: 0}
    - target: {fileID: -8679921383154817045, guid: 696c0b31b1e9e1f4e9859acd8d22896b, type: 3}
      propertyPath: m_LocalRotation.y
      value: -0
      objectReference: {fileID: 0}
    - target: {fileID: -8679921383154817045, guid: 696c0b31b1e9e1f4e9859acd8d22896b, type: 3}
      propertyPath: m_LocalRotation.z
      value: -0
      objectReference: {fileID: 0}
    - target: {fileID: -8679921383154817045, guid: 696c0b31b1e9e1f4e9859acd8d22896b, type: 3}
      propertyPath: m_LocalEulerAnglesHint.x
      value: 0
      objectReference: {fileID: 0}
    - target: {fileID: -8679921383154817045, guid: 696c0b31b1e9e1f4e9859acd8d22896b, type: 3}
      propertyPath: m_LocalEulerAnglesHint.y
      value: 0
      objectReference: {fileID: 0}
    - target: {fileID: -8679921383154817045, guid: 696c0b31b1e9e1f4e9859acd8d22896b, type: 3}
      propertyPath: m_LocalEulerAnglesHint.z
      value: 0
      objectReference: {fileID: 0}
    - target: {fileID: 919132149155446097, guid: 696c0b31b1e9e1f4e9859acd8d22896b, type: 3}
      propertyPath: m_Name
      value: Table couch
      objectReference: {fileID: 0}
    - target: {fileID: 3451118302482216456, guid: 696c0b31b1e9e1f4e9859acd8d22896b, type: 3}
      propertyPath: m_Enabled
      value: 0
      objectReference: {fileID: 0}
    m_RemovedComponents: []
  m_SourcePrefab: {fileID: 100100000, guid: 696c0b31b1e9e1f4e9859acd8d22896b, type: 3}
--- !u!1 &3799910865749486033 stripped
GameObject:
  m_CorrespondingSourceObject: {fileID: 919132149155446097, guid: 696c0b31b1e9e1f4e9859acd8d22896b, type: 3}
  m_PrefabInstance: {fileID: 4069731365554754688}
  m_PrefabAsset: {fileID: 0}
--- !u!4 &4607233409349415787 stripped
Transform:
  m_CorrespondingSourceObject: {fileID: -8679921383154817045, guid: 696c0b31b1e9e1f4e9859acd8d22896b, type: 3}
  m_PrefabInstance: {fileID: 4069731365554754688}
  m_PrefabAsset: {fileID: 0}
