{
  "project_info": {
    "project_number": "712082895466",
    "firebase_url": "https://niteout-c7d45.firebaseio.com",
    "project_id": "niteout-c7d45",
    "storage_bucket": "niteout-c7d45.appspot.com"
  },
  "client": [
    {
      "client_info": {
        "mobilesdk_app_id": "1:712082895466:android:8578d0e74c6d3a32375013",
        "android_client_info": {
          "package_name": "com.niteout.niteout"
        }
      },
      "oauth_client": [
        {
          "client_id": "712082895466-3rdssids5o6vtcmj64ako8lg1ltb9bda.apps.googleusercontent.com",
          "client_type": 1,
          "android_info": {
            "package_name": "com.niteout.niteoutapp",
            "certificate_hash": "4362cdef9594eb098abee92ac5e4fdfa6f7f7fc5"
          }
        },
        {
          "client_id": "712082895466-irqnarcofn60bscrbifsa5tjov6no8d3.apps.googleusercontent.com",
          "client_type": 3
        }
      ],
      "api_key": [
        {
          "current_key": "AIzaSyB7mqvzS-oFbWA8Lr-pypiUlKAoUrMFXtg"
        }
      ],
      "services": {
        "appinvite_service": {
          "other_platform_oauth_client": [
            {
              "client_id": "712082895466-irqnarcofn60bscrbifsa5tjov6no8d3.apps.googleusercontent.com",
              "client_type": 3
            },
            {
              "client_id": "712082895466-rurj6jaif7mh7tepm8fjb8mb98h1mjgv.apps.googleusercontent.com",
              "client_type": 2,
              "ios_info": {
                "bundle_id": "com.niteout.niteoutapp"
              }
            }
          ]
        }
      }
    },
    {
      "client_info": {
        "mobilesdk_app_id": "1:712082895466:android:7e065409a132496c375013",
        "android_client_info": {
          "package_name": "com.niteout.niteoutapp"
        }
      },
      "oauth_client": [
        {
          "client_id": "712082895466-irqnarcofn60bscrbifsa5tjov6no8d3.apps.googleusercontent.com",
          "client_type": 3
        }
      ],
      "api_key": [
        {
          "current_key": "AIzaSyB7mqvzS-oFbWA8Lr-pypiUlKAoUrMFXtg"
        }
      ],
      "services": {
        "appinvite_service": {
          "other_platform_oauth_client": [
            {
              "client_id": "712082895466-irqnarcofn60bscrbifsa5tjov6no8d3.apps.googleusercontent.com",
              "client_type": 3
            },
            {
              "client_id": "712082895466-rurj6jaif7mh7tepm8fjb8mb98h1mjgv.apps.googleusercontent.com",
              "client_type": 2,
              "ios_info": {
                "bundle_id": "com.niteout.niteoutapp"
              }
            }
          ]
        }
      }
    }
  ],
  "configuration_version": "1"
}