%YAML 1.1
%TAG !u! tag:unity3d.com,2011:
--- !u!1 &3024963798292784760
GameObject:
  m_ObjectHideFlags: 0
  m_CorrespondingSourceObject: {fileID: 0}
  m_PrefabInstance: {fileID: 0}
  m_PrefabAsset: {fileID: 0}
  serializedVersion: 6
  m_Component:
  - component: {fileID: 3964227213993691498}
  m_Layer: 0
  m_Name: Palm pot container
  m_TagString: Untagged
  m_Icon: {fileID: 0}
  m_NavMeshLayer: 0
  m_StaticEditorFlags: 0
  m_IsActive: 1
--- !u!4 &3964227213993691498
Transform:
  m_ObjectHideFlags: 0
  m_CorrespondingSourceObject: {fileID: 0}
  m_PrefabInstance: {fileID: 0}
  m_PrefabAsset: {fileID: 0}
  m_GameObject: {fileID: 3024963798292784760}
  m_LocalRotation: {x: -0, y: 0.6136341, z: -0, w: 0.7895906}
  m_LocalPosition: {x: -20.58, y: 0.90853333, z: -9.15}
  m_LocalScale: {x: 0.7, y: 0.7, z: 0.7}
  m_Children:
  - {fileID: 7918720977276470200}
  m_Father: {fileID: 0}
  m_RootOrder: 0
  m_LocalEulerAnglesHint: {x: 0, y: 0, z: 0}
--- !u!1001 &7669150483923264595
PrefabInstance:
  m_ObjectHideFlags: 0
  serializedVersion: 2
  m_Modification:
    m_TransformParent: {fileID: 3964227213993691498}
    m_Modifications:
    - target: {fileID: -8679921383154817045, guid: f48007b8689035b4c8dd1869fbc258b2, type: 3}
      propertyPath: m_RootOrder
      value: 0
      objectReference: {fileID: 0}
    - target: {fileID: -8679921383154817045, guid: f48007b8689035b4c8dd1869fbc258b2, type: 3}
      propertyPath: m_LocalPosition.x
      value: 0
      objectReference: {fileID: 0}
    - target: {fileID: -8679921383154817045, guid: f48007b8689035b4c8dd1869fbc258b2, type: 3}
      propertyPath: m_LocalPosition.y
      value: 0
      objectReference: {fileID: 0}
    - target: {fileID: -8679921383154817045, guid: f48007b8689035b4c8dd1869fbc258b2, type: 3}
      propertyPath: m_LocalPosition.z
      value: 0
      objectReference: {fileID: 0}
    - target: {fileID: -8679921383154817045, guid: f48007b8689035b4c8dd1869fbc258b2, type: 3}
      propertyPath: m_LocalRotation.w
      value: 1
      objectReference: {fileID: 0}
    - target: {fileID: -8679921383154817045, guid: f48007b8689035b4c8dd1869fbc258b2, type: 3}
      propertyPath: m_LocalRotation.x
      value: -0
      objectReference: {fileID: 0}
    - target: {fileID: -8679921383154817045, guid: f48007b8689035b4c8dd1869fbc258b2, type: 3}
      propertyPath: m_LocalRotation.y
      value: -0
      objectReference: {fileID: 0}
    - target: {fileID: -8679921383154817045, guid: f48007b8689035b4c8dd1869fbc258b2, type: 3}
      propertyPath: m_LocalRotation.z
      value: -0
      objectReference: {fileID: 0}
    - target: {fileID: -8679921383154817045, guid: f48007b8689035b4c8dd1869fbc258b2, type: 3}
      propertyPath: m_LocalEulerAnglesHint.x
      value: 0
      objectReference: {fileID: 0}
    - target: {fileID: -8679921383154817045, guid: f48007b8689035b4c8dd1869fbc258b2, type: 3}
      propertyPath: m_LocalEulerAnglesHint.y
      value: 75.705
      objectReference: {fileID: 0}
    - target: {fileID: -8679921383154817045, guid: f48007b8689035b4c8dd1869fbc258b2, type: 3}
      propertyPath: m_LocalEulerAnglesHint.z
      value: 0
      objectReference: {fileID: 0}
    - target: {fileID: 919132149155446097, guid: f48007b8689035b4c8dd1869fbc258b2, type: 3}
      propertyPath: m_Name
      value: Palm pot_container
      objectReference: {fileID: 0}
    m_RemovedComponents: []
  m_SourcePrefab: {fileID: 100100000, guid: f48007b8689035b4c8dd1869fbc258b2, type: 3}
--- !u!4 &7918720977276470200 stripped
Transform:
  m_CorrespondingSourceObject: {fileID: -8679921383154817045, guid: f48007b8689035b4c8dd1869fbc258b2, type: 3}
  m_PrefabInstance: {fileID: 7669150483923264595}
  m_PrefabAsset: {fileID: 0}
