%YAML 1.1
%TAG !u! tag:unity3d.com,2011:
--- !u!1 &6013496516655007397
GameObject:
  m_ObjectHideFlags: 0
  m_CorrespondingSourceObject: {fileID: 0}
  m_PrefabInstance: {fileID: 0}
  m_PrefabAsset: {fileID: 0}
  serializedVersion: 6
  m_Component:
  - component: {fileID: 7517652406158593798}
  m_Layer: 0
  m_Name: Men
  m_TagString: Untagged
  m_Icon: {fileID: 0}
  m_NavMeshLayer: 0
  m_StaticEditorFlags: 0
  m_IsActive: 1
--- !u!4 &7517652406158593798
Transform:
  m_ObjectHideFlags: 0
  m_CorrespondingSourceObject: {fileID: 0}
  m_PrefabInstance: {fileID: 0}
  m_PrefabAsset: {fileID: 0}
  m_GameObject: {fileID: 6013496516655007397}
  m_LocalRotation: {x: -0, y: -0.96407735, z: -0, w: 0.26562166}
  m_LocalPosition: {x: 6.026, y: 1.206, z: -1.565}
  m_LocalScale: {x: 0.6, y: 0.6, z: 0.6}
  m_Children:
  - {fileID: 8370908375949802700}
  m_Father: {fileID: 0}
  m_RootOrder: 0
  m_LocalEulerAnglesHint: {x: 0, y: 0, z: 0}
--- !u!1001 &8332162527750855463
PrefabInstance:
  m_ObjectHideFlags: 0
  serializedVersion: 2
  m_Modification:
    m_TransformParent: {fileID: 7517652406158593798}
    m_Modifications:
    - target: {fileID: -8679921383154817045, guid: cf07bd95d1c54ea48911adb9a980aacb, type: 3}
      propertyPath: m_RootOrder
      value: 0
      objectReference: {fileID: 0}
    - target: {fileID: -8679921383154817045, guid: cf07bd95d1c54ea48911adb9a980aacb, type: 3}
      propertyPath: m_LocalScale.x
      value: 1
      objectReference: {fileID: 0}
    - target: {fileID: -8679921383154817045, guid: cf07bd95d1c54ea48911adb9a980aacb, type: 3}
      propertyPath: m_LocalScale.y
      value: 1
      objectReference: {fileID: 0}
    - target: {fileID: -8679921383154817045, guid: cf07bd95d1c54ea48911adb9a980aacb, type: 3}
      propertyPath: m_LocalScale.z
      value: 1
      objectReference: {fileID: 0}
    - target: {fileID: -8679921383154817045, guid: cf07bd95d1c54ea48911adb9a980aacb, type: 3}
      propertyPath: m_LocalPosition.x
      value: 0
      objectReference: {fileID: 0}
    - target: {fileID: -8679921383154817045, guid: cf07bd95d1c54ea48911adb9a980aacb, type: 3}
      propertyPath: m_LocalPosition.y
      value: 0
      objectReference: {fileID: 0}
    - target: {fileID: -8679921383154817045, guid: cf07bd95d1c54ea48911adb9a980aacb, type: 3}
      propertyPath: m_LocalPosition.z
      value: 0
      objectReference: {fileID: 0}
    - target: {fileID: -8679921383154817045, guid: cf07bd95d1c54ea48911adb9a980aacb, type: 3}
      propertyPath: m_LocalRotation.w
      value: 1
      objectReference: {fileID: 0}
    - target: {fileID: -8679921383154817045, guid: cf07bd95d1c54ea48911adb9a980aacb, type: 3}
      propertyPath: m_LocalRotation.x
      value: -0
      objectReference: {fileID: 0}
    - target: {fileID: -8679921383154817045, guid: cf07bd95d1c54ea48911adb9a980aacb, type: 3}
      propertyPath: m_LocalRotation.y
      value: -0
      objectReference: {fileID: 0}
    - target: {fileID: -8679921383154817045, guid: cf07bd95d1c54ea48911adb9a980aacb, type: 3}
      propertyPath: m_LocalRotation.z
      value: -0
      objectReference: {fileID: 0}
    - target: {fileID: -8679921383154817045, guid: cf07bd95d1c54ea48911adb9a980aacb, type: 3}
      propertyPath: m_LocalEulerAnglesHint.x
      value: 0
      objectReference: {fileID: 0}
    - target: {fileID: -8679921383154817045, guid: cf07bd95d1c54ea48911adb9a980aacb, type: 3}
      propertyPath: m_LocalEulerAnglesHint.y
      value: -149.192
      objectReference: {fileID: 0}
    - target: {fileID: -8679921383154817045, guid: cf07bd95d1c54ea48911adb9a980aacb, type: 3}
      propertyPath: m_LocalEulerAnglesHint.z
      value: 0
      objectReference: {fileID: 0}
    - target: {fileID: 919132149155446097, guid: cf07bd95d1c54ea48911adb9a980aacb, type: 3}
      propertyPath: m_Name
      value: Menu
      objectReference: {fileID: 0}
    m_RemovedComponents: []
  m_SourcePrefab: {fileID: 100100000, guid: cf07bd95d1c54ea48911adb9a980aacb, type: 3}
--- !u!4 &8370908375949802700 stripped
Transform:
  m_CorrespondingSourceObject: {fileID: -8679921383154817045, guid: cf07bd95d1c54ea48911adb9a980aacb, type: 3}
  m_PrefabInstance: {fileID: 8332162527750855463}
  m_PrefabAsset: {fileID: 0}
